 [
       {
        "id": 1,
        "name": "Квадрокоптер DJI FPV Combo Fly More Combo",
        "price": 44999,
        "imgRoute": "https://content.rozetka.com.ua/goods/images/big/162313549.jpg",
        "article": "20111979",
        "color": "red"
      },
       {
        "id": 2,
        "name": "Квадрокоптер Xiaomi Fimi X8 Mini Drone",
        "price": 10834,
        "imgRoute": "https://content2.rozetka.com.ua/goods/images/big/187331005.png",
        "article": "20111980",
        "color": "red"
      },
       {
        "id": 3,
        "name": "Квадрокоптер (Дрон) DJI Ryze Tello Edu",
        "price": 7725,
        "imgRoute": "https://content1.rozetka.com.ua/goods/images/big/223422496.jpg",
        "article": "20111981",
        "color": "red"
      },
       {
        "id": 4,
        "name": "Кот",
        "price": "∞",
        "imgRoute": "https://i.guim.co.uk/img/media/26392d05302e02f7bf4eb143bb84c8097d09144b/446_167_3683_2210/master/3683.jpg?width=620&quality=85&auto=format&fit=max&s=21718fb1379918410ea10054db89f665",
        "article": "20111982",
        "color": "red"
      },
       {
        "id": 5,
        "name": "Виски Jameson Irish Whiskey 1 л 40%",
        "price": 599,
        "imgRoute": "https://content1.rozetka.com.ua/goods/images/big/10677920.jpg",
        "article": "20111983",
        "color": "red"
      },
       {
        "id": 6,
        "name": "Пылесос без мешка BOSCH",
        "price": 2399,
        "imgRoute": "https://content2.rozetka.com.ua/goods/images/big/231746871.jpg",
        "article": "20111984",
        "color": "custom"
      },
       {
        "id": 7,
        "name": "Телевизор Sony XR85Z9JCEP",
        "price": 339999,
        "imgRoute": "https://content.rozetka.com.ua/goods/images/big/184575277.jpg",
        "article": "20111985",
        "color": "white"
      },
       {
        "id": 8,
        "name": "Теннесси Виски Jack Daniel's Old No.7 1 л 40%",
        "price": 699,
        "imgRoute": "https://content1.rozetka.com.ua/goods/images/big/10696026.jpg",
        "article": "20111986",
        "color": "black"
      },
       {
        "id": 9,
        "name": "CAT",
        "price": 36,
        "imgRoute": "https://i.guim.co.uk/img/media/26392d05302e02f7bf4eb143bb84c8097d09144b/446_167_3683_2210/master/3683.jpg?width=620&quality=85&auto=format&fit=max&s=21718fb1379918410ea10054db89f665",
        "article": "20111985",
        "color": "red"
      },
       {
        "id": 10,
        "name": "CAT",
        "price": 559,
        "imgRoute": "https://i.guim.co.uk/img/media/26392d05302e02f7bf4eb143bb84c8097d09144b/446_167_3683_2210/master/3683.jpg?width=620&quality=85&auto=format&fit=max&s=21718fb1379918410ea10054db89f665",
        "article": "20111985",
        "color": "red"
      },
       {
        "id": 11,
        "name": "CAT",
        "price": 234,
        "imgRoute": "https://i.guim.co.uk/img/media/26392d05302e02f7bf4eb143bb84c8097d09144b/446_167_3683_2210/master/3683.jpg?width=620&quality=85&auto=format&fit=max&s=21718fb1379918410ea10054db89f665",
        "article": "20111985",
        "color": "red"
      },
       {
        "id": 12,
        "name": "CAT",
        "price": 999,
        "imgRoute": "https://i.guim.co.uk/img/media/26392d05302e02f7bf4eb143bb84c8097d09144b/446_167_3683_2210/master/3683.jpg?width=620&quality=85&auto=format&fit=max&s=21718fb1379918410ea10054db89f665",
        "article": "20111985",
        "color": "red"
      }


 ]